{
  "apiVersion": "v1",
  "kind": "ConfigMap",
  "metadata": {
    "name": "env-configmap",
    "namespace": "default"
  },
  "data": {
    "APIGEE_HOST": "amer-poc19-test.apigee.net",
    "DB_URL": "jdbc:mysql://dev-rds-cdg-0.cllynsizzdxo.us-east-1.rds.amazonaws.com:3306?noAccessToProcedureBodies=true",
    "API_KEY": "3_24UL9l3qBZB9K2QvTghXND7GgBwdcxoyqgCHF5lUBjAaT4WsS28397c5OUl6FmGL",
    "SECRET_KEY": "H/vFKIR3TXVKmDHv+S7OtsHKXPYPEepi",
    "USER_KEY": "AE11XOIgT2vP",
    "INCLUDE_VALUE": "isVerified",
    "GET_ACCOUNT_INFO_URL": "https://accounts.us1.gigya.com/accounts.getAccountInfo",
    "IDENTITY_CREATED_TOPIC_NAME": "IdentityCreated",
    "UPDATE_PASSWORD_TOPIC_NAME": "PasswordUpdated",
    "UPDATE_PROFILE_TOPIC_NAME": "ProfileUpdated",
    "BOOTSTRAP_SERVER": "b-1.datamsk.9vc4qz.c5.kafka.us-east-1.amazonaws.com:9092",
    "NUM_PARTITION": "1",
    "REPLICATION_FACTOR": "1",
    "ACCOUNT_URL": "/services/data/v38.0/sobjects/Account",
    "CONTACT_URL": "/services/data/v38.0/sobjects/Contact",
    "PROFILE_URL": "/services/data/v39.0/query/?q=SELECT+Id+FROM+Profile+where+Name='XE Customer'",
    "USER_URL": "/services/data/v38.0/sobjects/User",
    "APIGEE_URL": "http://amer-poc19-test.apigee.net/orders"
  }
}